{
    "results": [
        {
            "popularity": 1919.377,
            "vote_count": 1756,
            "video": false,
            "poster_path": "/aKx1ARwG55zZ0GpRvU2WrGrCG9o.jpg",
            "id": 337401,
            "adult": false,
            "backdrop_path": "/zzWGRw277MNoCs3zhyG3YmYQsXv.jpg",
            "original_language": "en",
            "original_title": "Mulan",
            "genre_ids": [
                28,
                12,
                18,
                14,
                10752
            ],
            "title": "Mulan",
            "vote_average": 7.5,
            "overview": "When the Emperor of China issues a decree that one man per family must serve in the Imperial Chinese Army to defend the country from Huns, Hua Mulan, the eldest daughter of an honored warrior, steps in to take the place of her ailing father. She is spirited, determined and quick on her feet. Disguised as a man by the name of Hua Jun, she is tested every step of the way and must harness her innermost strength and embrace her true potential.",
            "release_date": "2020-09-10"
        },
        {
            "popularity": 910.434,
            "vote_count": 225,
            "video": false,
            "poster_path": "/uOw5JD8IlD546feZ6oxbIjvN66P.jpg",
            "id": 718444,
            "adult": false,
            "backdrop_path": "/x4UkhIQuHIJyeeOTdcbZ3t3gBSa.jpg",
            "original_language": "en",
            "original_title": "Rogue",
            "genre_ids": [
                28
            ],
            "title": "Rogue",
            "vote_average": 5.9,
            "overview": "Battle-hardened O’Hara leads a lively mercenary team of soldiers on a daring mission: rescue hostages from their captors in remote Africa. But as the mission goes awry and the team is stranded, O’Hara’s squad must face a bloody, brutal encounter with a gang of rebels.",
            "release_date": "2020-08-20"
        },
        {
            "popularity": 855.316,
            "vote_count": 462,
            "video": false,
            "poster_path": "/sy6DvAu72kjoseZEjocnm2ZZ09i.jpg",
            "id": 581392,
            "adult": false,
            "backdrop_path": "/gEjNlhZhyHeto6Fy5wWy5Uk3A9D.jpg",
            "original_language": "ko",
            "original_title": "반도",
            "genre_ids": [
                28,
                27,
                53
            ],
            "title": "Peninsula",
            "vote_average": 7.1,
            "overview": "A soldier and his team battle hordes of post-apocalyptic zombies in the wastelands of the Korean Peninsula.",
            "release_date": "2020-07-15"
        },
        {
            "popularity": 674.842,
            "vote_count": 1238,
            "video": false,
            "poster_path": "/TnOeov4w0sTtV2gqICqIxVi74V.jpg",
            "id": 605116,
            "adult": false,
            "backdrop_path": "/qVygtf2vU15L2yKS4Ke44U4oMdD.jpg",
            "original_language": "en",
            "original_title": "Project Power",
            "genre_ids": [
                28,
                80,
                878
            ],
            "title": "Project Power",
            "vote_average": 6.7,
            "overview": "An ex-soldier, a teen and a cop collide in New Orleans as they hunt for the source behind a dangerous new pill that grants users temporary superpowers.",
            "release_date": "2020-08-14"
        },
        {
            "popularity": 575.679,
            "vote_count": 306,
            "video": false,
            "poster_path": "/kiX7UYfOpYrMFSAGbI6j1pFkLzQ.jpg",
            "id": 613504,
            "adult": false,
            "backdrop_path": "/r5srC0cqU36n38azFnCyReEksiR.jpg",
            "original_language": "en",
            "original_title": "After We Collided",
            "genre_ids": [
                18,
                10749
            ],
            "title": "After We Collided",
            "vote_average": 6.8,
            "overview": "Tessa finds herself struggling with her complicated relationship with Hardin; she faces a dilemma that could change their lives forever.",
            "release_date": "2020-09-02"
        },
        {
            "popularity": 502.827,
            "vote_count": 290,
            "video": false,
            "poster_path": "/uGhQ2ZGBpzCj6wC5jUrybsZuPTI.jpg",
            "id": 539885,
            "adult": false,
            "backdrop_path": "/hP1BYEj0uukHcYyKPxaRjI4GBOe.jpg",
            "original_language": "en",
            "original_title": "Ava",
            "genre_ids": [
                28,
                80,
                18,
                53
            ],
            "title": "Ava",
            "vote_average": 6,
            "overview": "A black ops assassin is forced to fight for her own survival after a job goes dangerously wrong.",
            "release_date": "2020-08-06"
        },
        {
            "popularity": 468.306,
            "vote_count": 83,
            "video": false,
            "poster_path": "/eDnHgozW8vfOaLHzfpHluf1GZCW.jpg",
            "id": 606234,
            "adult": false,
            "backdrop_path": "/u9YEh2xVAPVTKoaMNlB5tH6pXkm.jpg",
            "original_language": "en",
            "original_title": "Archive",
            "genre_ids": [
                878
            ],
            "title": "Archive",
            "vote_average": 5.9,
            "overview": "2038: George Almore is working on a true human-equivalent AI, and his latest prototype is almost ready. This sensitive phase is also the riskiest as he has a goal that must be hidden at all costs—being reunited with his dead wife.",
            "release_date": "2020-08-13"
        },
        {
            "popularity": 398.92,
            "vote_count": 640,
            "video": false,
            "poster_path": "/jHo2M1OiH9Re33jYtUQdfzPeUkx.jpg",
            "id": 385103,
            "adult": false,
            "backdrop_path": "/fKtYXUhX5fxMxzQfyUcQW9Shik6.jpg",
            "original_language": "en",
            "original_title": "Scoob!",
            "genre_ids": [
                12,
                16,
                35,
                10751
            ],
            "title": "Scoob!",
            "vote_average": 7.3,
            "overview": "In Scooby-Doo’s greatest adventure yet, see the never-before told story of how lifelong friends Scooby and Shaggy first met and how they joined forces with young detectives Fred, Velma, and Daphne to form the famous Mystery Inc. Now, with hundreds of cases solved, Scooby and the gang face their biggest, toughest mystery ever: an evil plot to unleash the ghost dog Cerberus upon the world. As they race to stop this global “dogpocalypse,” the gang discovers that Scooby has a secret legacy and an epic destiny greater than anyone ever imagined.",
            "release_date": "2020-07-08"
        },
        {
            "popularity": 394.733,
            "vote_count": 90,
            "video": false,
            "poster_path": "/sDi6wKgECUjDug2gn4uODSqZ3yC.jpg",
            "id": 632618,
            "adult": false,
            "backdrop_path": "/cVdYaAQmd5DZNdo0KFJruz7JpUs.jpg",
            "original_language": "es",
            "original_title": "Crímenes de familia",
            "genre_ids": [
                80,
                18,
                53
            ],
            "title": "The Crimes That Bind",
            "vote_average": 6.7,
            "overview": "When her son is accused of raping and trying to murder his ex-wife, Alicia embarks on a journey that will change her life forever.",
            "release_date": "2020-08-20"
        },
        {
            "popularity": 364.364,
            "vote_count": 13,
            "video": false,
            "poster_path": "/zXAwq18CJYmzhLZNbLpBf3dG3A5.jpg",
            "id": 546724,
            "adult": false,
            "backdrop_path": "/vUI5FHBCjBHrRCf6ZEVf8uA4VrE.jpg",
            "original_language": "en",
            "original_title": "We Summon the Darkness",
            "genre_ids": [
                27,
                53
            ],
            "title": "We Summon the Darkness",
            "vote_average": 6.3,
            "overview": "Three best friends attending a heavy-metal show cross paths with sadistic killers after they travel to a secluded country home for an after party.",
            "release_date": "2020-09-17"
        },
        {
            "popularity": 338.101,
            "vote_count": 159,
            "video": false,
            "poster_path": "/aVbqhqYtlxwEGihTEhewZAgDOCX.jpg",
            "id": 489326,
            "adult": false,
            "backdrop_path": "/dFB6Tiy3z2xRLbnEUB5ocApT5xG.jpg",
            "original_language": "en",
            "original_title": "Mortal",
            "genre_ids": [
                28,
                14,
                53
            ],
            "title": "Mortal",
            "vote_average": 6.6,
            "overview": "A young boy must discover the origins of his extraordinary powers before he is captured by authorities hell-bent on condemning him for an accidental murder.",
            "release_date": "2020-02-28"
        },
        {
            "popularity": 330.253,
            "vote_count": 1641,
            "video": false,
            "poster_path": "/k68nPLbIST6NP96JmTxmZijEvCA.jpg",
            "id": 577922,
            "adult": false,
            "backdrop_path": "/wzJRB4MKi3yK138bJyuL9nx47y6.jpg",
            "original_language": "en",
            "original_title": "Tenet",
            "genre_ids": [
                28,
                878,
                53
            ],
            "title": "Tenet",
            "vote_average": 7.5,
            "overview": "Armed with only one word - Tenet - and fighting for the survival of the entire world, the Protagonist journeys through a twilight world of international espionage on a mission that will unfold in something beyond real time.",
            "release_date": "2020-08-22"
        },
        {
            "popularity": 308.29,
            "vote_count": 380,
            "video": false,
            "poster_path": "/zGVbrulkupqpbwgiNedkJPyQum4.jpg",
            "id": 592350,
            "adult": false,
            "backdrop_path": "/9guoVF7zayiiUq5ulKQpt375VIy.jpg",
            "original_language": "ja",
            "original_title": "僕のヒーローアカデミア THE MOVIE ヒーローズ：ライジング",
            "genre_ids": [
                28,
                16
            ],
            "title": "My Hero Academia: Heroes Rising",
            "vote_average": 8.7,
            "overview": "Class 1-A visits Nabu Island where they finally get to do some real hero work. The place is so peaceful that it's more like a vacation … until they're attacked by a villain with an unfathomable Quirk! His power is eerily familiar, and it looks like Shigaraki had a hand in the plan. But with All Might retired and citizens' lives on the line, there's no time for questions. Deku and his friends are the next generation of heroes, and they're the island's only hope.",
            "release_date": "2019-12-20"
        },
        {
            "popularity": 280.811,
            "vote_count": 1116,
            "video": false,
            "poster_path": "/7W0G3YECgDAfnuiHG91r8WqgIOe.jpg",
            "id": 446893,
            "adult": false,
            "backdrop_path": "/qsxhnirlp7y4Ae9bd11oYJSX59j.jpg",
            "original_language": "en",
            "original_title": "Trolls World Tour",
            "genre_ids": [
                12,
                16,
                35,
                14,
                10402,
                10751
            ],
            "title": "Trolls World Tour",
            "vote_average": 7.6,
            "overview": "Queen Poppy and Branch make a surprising discovery — there are other Troll worlds beyond their own, and their distinct differences create big clashes between these various tribes. When a mysterious threat puts all of the Trolls across the land in danger, Poppy, Branch, and their band of friends must embark on an epic quest to create harmony among the feuding Trolls to unite them against certain doom.",
            "release_date": "2020-03-12"
        },
        {
            "popularity": 261.831,
            "vote_count": 3107,
            "video": false,
            "poster_path": "/f4aul3FyD3jv3v4bul1IrkWZvzq.jpg",
            "id": 508439,
            "adult": false,
            "backdrop_path": "/xFxk4vnirOtUxpOEWgA1MCRfy6J.jpg",
            "original_language": "en",
            "original_title": "Onward",
            "genre_ids": [
                12,
                16,
                35,
                14,
                10751
            ],
            "title": "Onward",
            "vote_average": 7.9,
            "overview": "In a suburban fantasy world, two teenage elf brothers embark on an extraordinary quest to discover if there is still a little magic left out there.",
            "release_date": "2020-02-29"
        },
        {
            "popularity": 235.878,
            "vote_count": 671,
            "video": false,
            "poster_path": "/4w1ItwCJCTtSi9nPfJC1vU6NIVg.jpg",
            "id": 413518,
            "adult": false,
            "backdrop_path": "/AdqOBPw4PdtzOcfEuQuZ8MNeTKb.jpg",
            "original_language": "it",
            "original_title": "Pinocchio",
            "genre_ids": [
                12,
                18,
                14,
                10751
            ],
            "title": "Pinocchio",
            "vote_average": 6.9,
            "overview": "In this live-action adaptation of the beloved fairytale, old woodcarver Geppetto fashions a wooden puppet, Pinocchio, who magically comes to life. Pinocchio longs for adventure and is easily led astray, encountering magical beasts, fantastical spectacles, while making friends and foes along his journey. However, his dream is to become a real boy, which can only come true if he finally changes his ways.",
            "release_date": "2019-12-19"
        },
        {
            "popularity": 224.701,
            "vote_count": 172,
            "video": false,
            "poster_path": "/4V2nTPfeB59TcqJcUfQ9ziTi7VN.jpg",
            "id": 501979,
            "adult": false,
            "backdrop_path": "/oazPqs1z78LcIOFslbKtJLGlueo.jpg",
            "original_language": "en",
            "original_title": "Bill & Ted Face the Music",
            "genre_ids": [
                12,
                35,
                878
            ],
            "title": "Bill & Ted Face the Music",
            "vote_average": 6.6,
            "overview": "Yet to fulfill their rock and roll destiny, the now middle-aged best friends Bill and Ted set out on a new adventure when a visitor from the future warns them that only their song can save life as we know it. Along the way, they are helped by their daughters, a new batch of historical figures and a few music legends—to seek the song that will set their world right and bring harmony to the universe.",
            "release_date": "2020-08-27"
        },
        {
            "popularity": 222.121,
            "vote_count": 269,
            "video": false,
            "poster_path": "/45FNxAIooJFqjsVaCJts9YJHXS4.jpg",
            "id": 340102,
            "adult": false,
            "backdrop_path": "/eCIvqa3QVCx6H09bdeOS8Al2Sqy.jpg",
            "original_language": "en",
            "original_title": "The New Mutants",
            "genre_ids": [
                28,
                12,
                27,
                878
            ],
            "title": "The New Mutants",
            "vote_average": 5.8,
            "overview": "Five young mutants, just discovering their abilities while held in a secret facility against their will, fight to escape their past sins and save themselves.",
            "release_date": "2020-08-26"
        },
        {
            "popularity": 212.89,
            "vote_count": 32,
            "video": false,
            "poster_path": "/Xt37loPwHjipC1qaCbfLfDcFu4.jpg",
            "id": 675490,
            "adult": false,
            "backdrop_path": "/4ZvjVXQU93SLbMy7rYu4xg2LKTt.jpg",
            "original_language": "en",
            "original_title": "The Unfamiliar",
            "genre_ids": [
                27,
                53
            ],
            "title": "The Unfamiliar",
            "vote_average": 6.1,
            "overview": "A British Army doctor comes back from a war, thinking that she has PTSD only to discover that there is a more daunting malevolence at work making the life that she knew unfamiliar.",
            "release_date": "2020-08-21"
        },
        {
            "popularity": 210.627,
            "vote_count": 20,
            "video": false,
            "poster_path": "/jkAZb9jteax1XRnEFlCU9Oer1YJ.jpg",
            "id": 610201,
            "adult": false,
            "backdrop_path": "/ruXHUA3KiiLEjCwvSqKuxe9O6ZQ.jpg",
            "original_language": "en",
            "original_title": "The Pale Door",
            "genre_ids": [
                27,
                37
            ],
            "title": "The Pale Door",
            "vote_average": 5.5,
            "overview": "The Dalton gang escape to a nearby town after a train robbery goes south, but they are met by a coven of witches with sinister plans for the unsuspecting outlaws.",
            "release_date": "2020-08-21"
        }
    ],
    "page": 1,
    "total_results": 1091,
    "dates": {
        "maximum": "2020-09-25",
        "minimum": "2020-08-08"
    },
    "total_pages": 55
}